module fnax.xyz/chat

go 1.17

require github.com/googollee/go-socket.io v1.6.1

require (
	github.com/gofrs/uuid v4.0.0+incompatible // indirect
	github.com/gomodule/redigo v1.8.4 // indirect
	github.com/gorilla/websocket v1.4.2 // indirect
)
